%YAML 1.1
%TAG !u! tag:unity3d.com,2011:
--- !u!1045 &1
EditorBuildSettings:
  m_ObjectHideFlags: 0
  serializedVersion: 2
  m_Scenes:
  - enabled: 0
    path: Assets/HTC.UnityPlugin/ViveInputUtility/Examples/6.ControllerManagerSample/ControllerManagerSample.unity
    guid: 47f6e15cfe07a644095ae09e4fd298a4
  - enabled: 0
    path: Assets/HTC.UnityPlugin/ViveInputUtility/Examples/5.ColliderEvent/ColliderEvent.unity
    guid: d8120628a3b4fb84eb121a883bc093a6
  - enabled: 1
    path: Assets/Scenes/SampleScene.unity
    guid: 9fc0d4010bbf28b4594072e72b8655ab
  - enabled: 0
    path: Assets/HTC.UnityPlugin/ViveInputUtility/Examples/3.3DDrag/3DDrag.unity
    guid: ce84185c8ba60394c84a54b4fe34af8f
  - enabled: 0
    path: Assets/HTC.UnityPlugin/ViveInputUtility/Examples/7.RoleBindingExample/RoleBindingExample.unity
    guid: bc4e44a3b6c99684384abd378f45e9fe
  m_configObjects: {}
